{
  "root": ".",
  "entrypoint": "index.html",
  "sources": [
    "frontend/**/*",    
    "bower.json"
   ],
  "lint": {
    "rules": [
      "polymer-2"
    ]
  },
  "extraDependencies": [
    "manifest.json",
    "bower_components/zxcvbn/dist/zxcvbn.js"
  ]  
}